2.367324296188354538e+02
2.650833936691284265e+01
1.788349418640136790e+01
1.608704430580139189e+01
1.490628865242004331e+01
1.387251483917236250e+01
1.293744263648986781e+01
1.215942762374877972e+01
1.138114378929138226e+01
1.076718862533569343e+01
1.026648922920227136e+01
9.920972089767456481e+00
9.510382270812987926e+00
9.270297327041625124e+00
9.040708956718445322e+00
8.898332996368408132e+00
8.580124678611754874e+00
8.407507538795471191e+00
8.204981002807617330e+00
8.153225445747375844e+00
8.060954828262328675e+00
7.946357955932617401e+00
8.027616486549376873e+00
7.852504544258117392e+00
7.502447257041930939e+00
7.457329907417297399e+00
7.419010286331176651e+00
7.350020632743835769e+00
7.266093802452087580e+00
7.310305538177490625e+00
7.196839485168457173e+00
7.262617011070251039e+00
7.140556449890136825e+00
7.107857594490051056e+00
7.064520025253296254e+00
6.964494333267212234e+00
6.898367195129394780e+00
6.856277022361755513e+00
6.829698877334594798e+00
6.704930176734924530e+00
6.704566216468810680e+00
6.639464173316955709e+00
6.651548504829406738e+00
6.627846422195434961e+00
6.658510522842407298e+00
6.566483430862426474e+00
6.577878417968750391e+00
6.572874002456664755e+00
6.533466081619263122e+00
6.528527827262878169e+00
