5.652266868591308935e+01
2.260057518005370980e+01
1.704867473602294936e+01
1.609766534805297766e+01
1.526984996795654226e+01
1.401605335235595717e+01
1.375136886596679631e+01
1.214478773117065380e+01
1.166379934310913136e+01
1.150738485336303718e+01
1.072093513488769467e+01
1.036920482635498075e+01
1.012692777633666985e+01
1.003247861862182688e+01
9.848798446655273153e+00
1.003403619766235266e+01
1.061621330261230511e+01
9.324852638244628622e+00
9.298549747467040660e+00
9.023789157867431854e+00
9.309942646026611257e+00
9.526439609527587393e+00
8.935671243667602681e+00
9.103784275054930930e+00
9.355359401702880717e+00
8.936366310119629119e+00
8.743521661758423491e+00
8.517642211914061789e+00
8.354566135406493288e+00
8.421198644638060671e+00
8.440719318389891868e+00
8.383580684661865234e+00
9.080900688171386292e+00
8.387692804336547070e+00
8.236380567550659393e+00
8.232241725921630504e+00
8.208008985519409606e+00
8.152919387817382457e+00
8.091466388702393431e+00
8.254376449584960085e+00
7.986529912948608256e+00
8.344937009811401296e+00
8.356102552413940288e+00
8.415348110198975107e+00
8.438515167236328551e+00
7.992246761322021165e+00
7.946668891906738530e+00
7.808291969299316015e+00
8.084972372055053924e+00
7.910877237319946076e+00
