1.909274034004211444e+03
2.437202796936035298e+01
5.135533614616393606e+03
5.880869499206542628e+01
2.399553665161132798e+01
1.520395998001098548e+01
7.571635709762573185e+01
1.266307590484619183e+01
1.310649993896484311e+01
1.162656244277954087e+01
1.153804143905639634e+01
1.086997701644897418e+01
1.208332277297973611e+01
1.075345237731933601e+01
1.052003755569458043e+01
1.000618083953857429e+01
9.876494235992431925e+00
9.406287536621093182e+00
9.268001499176024893e+00
9.322001152038573935e+00
9.150203437805176421e+00
9.871393013000488992e+00
9.116076755523682351e+00
9.329000988006590944e+00
9.436325588226317507e+00
9.099133663177489950e+00
8.891940507888794087e+00
9.333445158004760600e+00
9.449532375335692791e+00
9.104933967590332244e+00
8.901851139068604368e+00
8.699856910705566548e+00
8.569053754806517986e+00
8.619700784683226757e+00
8.614942035675049681e+00
8.308978109359740571e+00
8.380201692581175976e+00
8.281048631668090465e+00
8.584914693832397248e+00
8.788769292831421609e+00
8.188194999694824006e+00
8.267765207290649343e+00
8.156005954742431285e+00
8.342147169113159677e+00
8.148315191268920898e+00
8.559504756927490021e+00
8.231444473266600781e+00
8.215236606597899893e+00
7.948548021316528711e+00
8.289436502456664968e+00
